{
  "name": "AdvocatePayment",
  "base": "PersistedModel",
  "idInjection": true,
  "options": {
    "validateUpsert": true
  },
  "properties": {
    "advocateName": {
      "type": "string"
    },
    "amount": {
      "type": "number"
    },
    "caseNumber": {
      "type": "string"
    },
    "description": {
      "type": "string"
    },
    "paymentDate": {
      "type": "string"
    },
    "mode": {
      "type": "string"
    },
    "checkNo": {
      "type": "string"
    },
    "checkDate": {
      "type": "string"
    },
    "bank": {
      "type": "string"
    },
    "branch": {
      "type": "string"
    }
  },
  "validations": [],
  "relations": {},
  "acls": [
    {
      "accessType": "*",
      "principalType": "ROLE",
      "principalId": "$everyone",
      "permission": "DENY"
    },
    {
      "accessType": "*",
      "principalType": "ROLE",
      "principalId": "$authenticated",
      "permission": "ALLOW"
    }
  ],
  "methods": {}
}
